recommend_friend_models
…
base_importance_all <- bind_rows(
  base_logit_importance,
  base_lasso_importance,
  base_ridge_importance,
  base_enet_importance,
  base_rf_importance
) %>%
  mutate(
    Model_Label = paste(Features, Model, sep = " + "),
    term_clean = clean_feature_names(term)
  )

base_importance_all

# A tibble: 50 × 8
   Features  Model    term  estimate Importance Direction Model_Label term_clean
   <chr>     <chr>    <chr>    <dbl>      <dbl> <chr>     <chr>       <chr>     
 1 base_only Logisti… sect…    11.6       11.6  Positive  base_only … sectorLeg…
 2 base_only Logisti… sect…    11.5       11.5  Positive  base_only … sectorEne…
 3 base_only Logisti… flag…    11.4       11.4  Positive  base_only … ceo appro…
 4 base_only Logisti… flag…    11.2       11.2  Positive  base_only … ceo appro…
 5 base_only Logisti… sect…    11.2       11.2  Positive  base_only … sectorRea…
 6 base_only Logisti… flag…    10.2       10.2  Positive  base_only … ceo appro…
 7 base_only Logisti… sect…    10.1       10.1  Positive  base_only … sectorCon…
 8 base_only Logisti… sect…     9.79       9.79 Positive  base_only … sectorEdu…
 9 base_only Logisti… sect…     9.61       9.61 Positive  base_only … sectorTra…
10 base_only Logisti… sect…     9.54       9.54 Positive  base_only … sectorMed…
# ℹ 40 more rows
…
9. Combine All Feature Importance Results

importance_all <- bind_rows(
  bind_rows(logit_importance),
  bind_rows(rf_importance)
) %>%
  mutate(
    Model_Label = paste(Features, Model, sep = " + "),
    term_clean = clean_feature_names(term)
  )

importance_all

# A tibble: 250 × 8
   Features  Model    term  estimate Importance Direction Model_Label term_clean
   <chr>     <chr>    <chr>    <dbl>      <dbl> <chr>     <chr>       <chr>     
 1 base_only Logisti… sect…    11.6       11.6  Positive  base_only … sectorLeg…
 2 base_only Logisti… sect…    11.5       11.5  Positive  base_only … sectorEne…
 3 base_only Logisti… flag…    11.4       11.4  Positive  base_only … ceo appro…
 4 base_only Logisti… flag…    11.2       11.2  Positive  base_only … ceo appro…
 5 base_only Logisti… sect…    11.2       11.2  Positive  base_only … sectorRea…
 6 base_only Logisti… flag…    10.2       10.2  Positive  base_only … ceo appro…
 7 base_only Logisti… sect…    10.1       10.1  Positive  base_only … sectorCon…
 8 base_only Logisti… sect…     9.79       9.79 Positive  base_only … sectorEdu…
 9 base_only Logisti… sect…     9.61       9.61 Positive  base_only … sectorTra…
10 base_only Logisti… sect…     9.54       9.54 Positive  base_only … sectorMed…
# ℹ 240 more rows

9.1 View Top 10 Features for the Best Overall Models

top_model_features_df <- importance_all %>%
  semi_join(top_models, by = "Model_Label") %>%
  group_by(Model_Label) %>%
  slice_max(order_by = Importance, n = 10, with_ties = FALSE) %>%
  mutate(Importance_scaled = Importance / max(Importance)) %>%
  ungroup() %>%
  arrange(Model_Label, desc(Importance_scaled))

top_model_features_df

# A tibble: 100 × 9
   Features     Model term  estimate Importance Direction Model_Label term_clean
   <chr>        <chr> <chr>    <dbl>      <dbl> <chr>     <chr>       <chr>     
 1 base_and_al… Elas… sect…    1.78       1.78  Positive  base_and_a… sectorEne…
 2 base_and_al… Elas… sent…    1.74       1.74  Positive  base_and_a… vader avg 
 3 base_and_al… Elas… sect…    1.66       1.66  Positive  base_and_a… sectorRea…
 4 base_and_al… Elas… sect…    1.50       1.50  Positive  base_and_a… sectorLeg…
 5 base_and_al… Elas… sect…   -1.16       1.16  Negative  base_and_a… sectorRet…
 6 base_and_al… Elas… sent…    1.16       1.16  Positive  base_and_a… roberta a…
 7 base_and_al… Elas… flag…    0.931      0.931 Positive  base_and_a… business …
 8 base_and_al… Elas… care…   -0.888      0.888 Negative  base_and_a… career mi…
 9 base_and_al… Elas… sect…   -0.742      0.742 Negative  base_and_a… sectorTec…
10 base_and_al… Elas… sect…    0.723      0.723 Positive  base_and_a… sectorTra…
# ℹ 90 more rows
# ℹ 1 more variable: Importance_scaled <dbl>
…
